INSERT INTO FoodDelivery_FinalProject.Trip VALUES ('1000','100000061','8.71','24:32:19.9504679','8.829');
INSERT INTO FoodDelivery_FinalProject.Trip VALUES ('1001','100000097','7.37','22:22:3.291752','5.848');
INSERT INTO FoodDelivery_FinalProject.Trip VALUES ('1002','100000035','9.32','17:55:24.3688065','9.942');
INSERT INTO FoodDelivery_FinalProject.Trip VALUES ('1003','100000011','14.29','4:25:5.34455','9.735');
INSERT INTO FoodDelivery_FinalProject.Trip VALUES ('1004','100000018','6.96','2:21:14.1858804','5.756');
INSERT INTO FoodDelivery_FinalProject.Trip VALUES ('1005','100000044','6.34','8:38:12.2939552','12.724');
INSERT INTO FoodDelivery_FinalProject.Trip VALUES ('1006','100000064','6.57','11:20:8.6345501','16.756');
INSERT INTO FoodDelivery_FinalProject.Trip VALUES ('1007','100000022','10.19','16:0:21.2316728','13.823');
INSERT INTO FoodDelivery_FinalProject.Trip VALUES ('1008','100000003','14.27','7:44:8.1851667','9.587');
INSERT INTO FoodDelivery_FinalProject.Trip VALUES ('1009','100000039','5.05','19:42:1.7459640','2.122');
INSERT INTO FoodDelivery_FinalProject.Trip VALUES ('1010','100000070','9.9','13:43:9.8396215','18.821');
INSERT INTO FoodDelivery_FinalProject.Trip VALUES ('1011','100000084','10.92','18:46:24.4855659','19.757');
INSERT INTO FoodDelivery_FinalProject.Trip VALUES ('1012','100000041','12.54','12:37:7.442752','6.782');
INSERT INTO FoodDelivery_FinalProject.Trip VALUES ('1013','100000005','8.6','8:24:0.109764','4.983');
INSERT INTO FoodDelivery_FinalProject.Trip VALUES ('1014','100000070','6.35','4:33:8.9198055','13.692');
INSERT INTO FoodDelivery_FinalProject.Trip VALUES ('1015','100000038','5.76','22:10:5.9044383','10.519');
INSERT INTO FoodDelivery_FinalProject.Trip VALUES ('1016','100000069','13.46','14:1:14.5534520','10.13');
INSERT INTO FoodDelivery_FinalProject.Trip VALUES ('1017','100000093','14.09','18:30:16.6989295','14.929');
INSERT INTO FoodDelivery_FinalProject.Trip VALUES ('1018','100000024','13.11','4:46:19.4216088','11.371');
INSERT INTO FoodDelivery_FinalProject.Trip VALUES ('1019','100000060','11.61','19:11:14.536727','12.438');
INSERT INTO FoodDelivery_FinalProject.Trip VALUES ('1020','100000089','12.64','4:14:24.240468','13.004');
INSERT INTO FoodDelivery_FinalProject.Trip VALUES ('1021','100000036','11.4','21:23:0.3774064','1.306');
INSERT INTO FoodDelivery_FinalProject.Trip VALUES ('1022','100000008','8.84','12:3:7.4057602','15.772');
INSERT INTO FoodDelivery_FinalProject.Trip VALUES ('1023','100000019','9.14','4:43:4.2075435','10.233');
INSERT INTO FoodDelivery_FinalProject.Trip VALUES ('1024','100000024','14.14','15:25:21.2473543','1.317');
INSERT INTO FoodDelivery_FinalProject.Trip VALUES ('1025','100000041','5.25','13:3:22.6007098','4.619');
INSERT INTO FoodDelivery_FinalProject.Trip VALUES ('1026','100000088','10.05','24:3:20.9469458','10.629');
INSERT INTO FoodDelivery_FinalProject.Trip VALUES ('1027','100000084','5.01','21:2:1.8220343','11.643');
INSERT INTO FoodDelivery_FinalProject.Trip VALUES ('1028','100000007','12.9','22:50:9.4540531','17.208');
INSERT INTO FoodDelivery_FinalProject.Trip VALUES ('1029','100000021','8.75','21:3:2.1673092','9.574');
INSERT INTO FoodDelivery_FinalProject.Trip VALUES ('1030','100000098','8.79','3:24:14.9067649','15.187');
INSERT INTO FoodDelivery_FinalProject.Trip VALUES ('1031','100000003','11.96','12:4:19.5584054','10.813');
INSERT INTO FoodDelivery_FinalProject.Trip VALUES ('1032','100000052','12.48','14:9:2.1326028','16.779');
INSERT INTO FoodDelivery_FinalProject.Trip VALUES ('1033','100000022','9.82','8:4:8.9157727','16.628');
INSERT INTO FoodDelivery_FinalProject.Trip VALUES ('1034','100000011','11.09','16:53:13.9699238','2.679');
INSERT INTO FoodDelivery_FinalProject.Trip VALUES ('1035','100000040','11.68','21:4:4.3854751','3.529');
INSERT INTO FoodDelivery_FinalProject.Trip VALUES ('1036','100000009','5.82','19:56:16.6076029','13.142');
INSERT INTO FoodDelivery_FinalProject.Trip VALUES ('1037','100000004','5.92','12:50:17.8119795','6.543');
INSERT INTO FoodDelivery_FinalProject.Trip VALUES ('1038','100000012','10.52','21:21:9.9944341','8.93');
INSERT INTO FoodDelivery_FinalProject.Trip VALUES ('1039','100000046','11.72','17:27:20.5613368','7.959');
INSERT INTO FoodDelivery_FinalProject.Trip VALUES ('1040','100000030','5.57','24:40:17.696657','14.165');
INSERT INTO FoodDelivery_FinalProject.Trip VALUES ('1041','100000043','5.23','19:48:18.9486322','2.687');
INSERT INTO FoodDelivery_FinalProject.Trip VALUES ('1042','100000037','7.84','14:35:9.3288008','2.796');
INSERT INTO FoodDelivery_FinalProject.Trip VALUES ('1043','100000068','14.9','13:33:1.9061704','13.274');
INSERT INTO FoodDelivery_FinalProject.Trip VALUES ('1044','100000063','12.65','12:14:7.422223','18.928');
INSERT INTO FoodDelivery_FinalProject.Trip VALUES ('1045','100000007','7.33','17:42:0.5609388','1.301');
INSERT INTO FoodDelivery_FinalProject.Trip VALUES ('1046','100000089','7.51','0:45:15.8558367','4.355');
INSERT INTO FoodDelivery_FinalProject.Trip VALUES ('1047','100000088','7.25','24:33:0.1591695','8.41');
INSERT INTO FoodDelivery_FinalProject.Trip VALUES ('1048','100000046','11.15','4:25:7.5224951','13.811');
INSERT INTO FoodDelivery_FinalProject.Trip VALUES ('1049','100000086','7.69','24:21:19.7607249','13.444');
INSERT INTO FoodDelivery_FinalProject.Trip VALUES ('1050','100000013','8.9','9:39:14.3652911','5.337');
INSERT INTO FoodDelivery_FinalProject.Trip VALUES ('1051','100000084','12.09','8:55:16.3690115','19.435');
INSERT INTO FoodDelivery_FinalProject.Trip VALUES ('1052','100000082','5.95','13:57:6.4328198','17.389');
INSERT INTO FoodDelivery_FinalProject.Trip VALUES ('1053','100000015','12.74','22:34:6.1130542','16.349');
INSERT INTO FoodDelivery_FinalProject.Trip VALUES ('1054','100000033','7.64','19:4:5.6506991','9.426');
INSERT INTO FoodDelivery_FinalProject.Trip VALUES ('1055','100000017','5.36','16:37:1.977709','12.798');
INSERT INTO FoodDelivery_FinalProject.Trip VALUES ('1056','100000022','8.18','2:14:9.4841667','6.784');
INSERT INTO FoodDelivery_FinalProject.Trip VALUES ('1057','100000048','6.59','9:24:5.4514684','10.958');
INSERT INTO FoodDelivery_FinalProject.Trip VALUES ('1058','100000059','5.35','0:33:1.726980','19.366');
INSERT INTO FoodDelivery_FinalProject.Trip VALUES ('1059','100000023','9.79','6:50:16.5971369','2.145');
INSERT INTO FoodDelivery_FinalProject.Trip VALUES ('1060','100000006','9.66','10:20:1.8102488','4.606');
INSERT INTO FoodDelivery_FinalProject.Trip VALUES ('1061','100000050','10.52','15:12:7.7977561','15.014');
INSERT INTO FoodDelivery_FinalProject.Trip VALUES ('1062','100000018','13.63','16:46:17.8437663','9.894');
INSERT INTO FoodDelivery_FinalProject.Trip VALUES ('1063','100000036','10.94','7:6:15.8654206','9.512');
INSERT INTO FoodDelivery_FinalProject.Trip VALUES ('1064','100000051','7.57','22:10:19.1552490','13.127');
INSERT INTO FoodDelivery_FinalProject.Trip VALUES ('1065','100000091','8.13','19:12:2.31592','17.02');
INSERT INTO FoodDelivery_FinalProject.Trip VALUES ('1066','100000060','9.17','10:1:1.7736814','18.378');
INSERT INTO FoodDelivery_FinalProject.Trip VALUES ('1067','100000049','11.03','1:55:22.5860611','5.259');
INSERT INTO FoodDelivery_FinalProject.Trip VALUES ('1068','100000094','10.13','24:11:24.3754110','4.912');
INSERT INTO FoodDelivery_FinalProject.Trip VALUES ('1069','100000100','14.32','10:18:11.7982491','7.296');
INSERT INTO FoodDelivery_FinalProject.Trip VALUES ('1070','100000003','9.94','13:33:3.7089291','10.726');
INSERT INTO FoodDelivery_FinalProject.Trip VALUES ('1071','100000070','7.4','5:58:10.260418','3.154');
INSERT INTO FoodDelivery_FinalProject.Trip VALUES ('1072','100000029','11.18','15:6:22.344081','3.551');
INSERT INTO FoodDelivery_FinalProject.Trip VALUES ('1073','100000051','13.09','21:46:1.8857033','6.919');
INSERT INTO FoodDelivery_FinalProject.Trip VALUES ('1074','100000089','6.61','13:2:2.2713317','19.288');
INSERT INTO FoodDelivery_FinalProject.Trip VALUES ('1075','100000016','7.66','8:34:18.5082925','9.438');
INSERT INTO FoodDelivery_FinalProject.Trip VALUES ('1076','100000085','7.86','20:6:8.1828274','13.887');
INSERT INTO FoodDelivery_FinalProject.Trip VALUES ('1077','100000007','10.8','21:43:6.5216121','4.123');
INSERT INTO FoodDelivery_FinalProject.Trip VALUES ('1078','100000084','8.3','11:39:8.4746211','4.789');
INSERT INTO FoodDelivery_FinalProject.Trip VALUES ('1079','100000078','14.37','24:1:21.2545208','6.19');
INSERT INTO FoodDelivery_FinalProject.Trip VALUES ('1080','100000092','8.72','2:29:12.9177587','15.152');
INSERT INTO FoodDelivery_FinalProject.Trip VALUES ('1081','100000052','14.65','14:22:0.4195078','2.818');
INSERT INTO FoodDelivery_FinalProject.Trip VALUES ('1082','100000025','5.46','15:25:21.2242903','12.32');
INSERT INTO FoodDelivery_FinalProject.Trip VALUES ('1083','100000001','12.43','10:54:15.5780442','10.049');
INSERT INTO FoodDelivery_FinalProject.Trip VALUES ('1084','100000040','9.34','12:44:11.2292258','13.469');
INSERT INTO FoodDelivery_FinalProject.Trip VALUES ('1085','100000038','13.64','20:28:15.5463561','7.36');
INSERT INTO FoodDelivery_FinalProject.Trip VALUES ('1086','100000015','7.59','3:56:17.9530404','8.784');
INSERT INTO FoodDelivery_FinalProject.Trip VALUES ('1087','100000023','13.58','24:56:2.6073746','8.821');
INSERT INTO FoodDelivery_FinalProject.Trip VALUES ('1088','100000087','9.6','14:40:18.2696626','2.191');
INSERT INTO FoodDelivery_FinalProject.Trip VALUES ('1089','100000006','14.04','1:9:19.2575233','16.834');
INSERT INTO FoodDelivery_FinalProject.Trip VALUES ('1090','100000011','12.39','3:37:17.7678008','16.775');
INSERT INTO FoodDelivery_FinalProject.Trip VALUES ('1091','100000011','7.17','1:32:1.5715050','7.981');
INSERT INTO FoodDelivery_FinalProject.Trip VALUES ('1092','100000034','10.81','21:23:8.2998336','1.94');
INSERT INTO FoodDelivery_FinalProject.Trip VALUES ('1093','100000066','14.62','10:50:4.2810940','3.881');
INSERT INTO FoodDelivery_FinalProject.Trip VALUES ('1094','100000077','9.09','8:46:15.4170698','10.349');
INSERT INTO FoodDelivery_FinalProject.Trip VALUES ('1095','100000016','7.29','11:35:20.8633072','5.178');
INSERT INTO FoodDelivery_FinalProject.Trip VALUES ('1096','100000077','9.33','6:47:22.7609902','1.239');
INSERT INTO FoodDelivery_FinalProject.Trip VALUES ('1097','100000063','5.75','10:48:1.2631161','10.433');
INSERT INTO FoodDelivery_FinalProject.Trip VALUES ('1098','100000092','11.6','14:10:14.6604958','3.819');
INSERT INTO FoodDelivery_FinalProject.Trip VALUES ('1099','100000093','14.78','22:48:13.7418660','9.207');
